Project 2 - Comparing Coffee Characteristics by Country of Origin
…
After looking through the data, I became curious to see if coffees grown in particular countries or regions produce different flavor profiles. Are African coffees sweeter than South American ones? Does Ethiopia produce more aromatic coffee than Hawaii? My goal was to answer this question and figure out a way to visualize the answer.

Approach

Mapping

First, I decided to create an interactive chloropleth map in Shinyapp to visualize each trait on a world map. I thought this would be an effective way to visualize the range and variability across the world, while highlighting the areas with particularly high or low ratings of each flavor quality.

To do this, I looked at coffee rating on five flavor traits: acidity, aroma, flavor, sweetness, and Total Cup Points (aka an overall rating). I took an average for each country of all the coffees it produces and assigned it that mean value for the corresponding category.

# A tibble: 37 × 6
   `Country of Origin` Acidity Aroma Flavor Sweetness `Total Cup Points`
   <chr>                 <dbl> <dbl>  <dbl>     <dbl>              <dbl>
 1 Brazil                 7.51  7.55   7.57      9.95               82.4
 2 Burundi                7.42  7.42   7.46     10                  81.8
 3 China                  7.58  7.64   7.63      9.92               82.9
 4 Colombia               7.56  7.65   7.60      9.95               83.1
 5 Costa Rica             7.57  7.67   7.54      9.91               82.8
 6 Cote d?Ivoire          7     7.42   7.25     10                  79.3
 7 Ecuador                7.75  7.5    7.67     10                  83.8
 8 El Salvador            7.59  7.67   7.65      9.81               83.1
 9 Ethiopia               8.04  7.90   8.01      9.86               85.5
10 Guatemala              7.60  7.54   7.49      9.87               81.8
# ℹ 27 more rows
…
